alembic==0.9.9
apns==2.0.1
appdirs==1.4.3
beautifulsoup4==4.6.0
blinker==1.4
bs4==0.0.1
click==6.7
Flask==0.12.1
Flask-Cors==3.0.3
Flask-Mail==0.9.1
Flask-Migrate==2.2.0
Flask-MongoKit==0.6
Flask-MySQLdb==0.2.0
Flask-Pushjack==1.0.0
Flask-PyMongo==0.4.1
Flask-SQLAlchemy==2.2
geopy==1.11.0
google-api-python-client==1.6.2
googlemaps==2.4.6
httplib2==0.10.3
itsdangerous==0.24
Jinja2==2.9.6
Mako==1.0.7
MarkupSafe==1.0
mongokit==0.9.1.1
mysqlclient==1.3.10
oauth2client==4.1.0
packaging==16.8
pdfkit==0.6.1
pkg-resources==0.0.0
pushjack==1.3.0
pyasn1==0.2.3
pyasn1-modules==0.0.8
pymongo==2.6.2
pyparsing==2.2.0
python-dateutil==2.7.3
python-editor==1.0.3
python-gmaps==0.3.1
pytz==2017.2
requests==2.11.1
rsa==3.4.2
six==1.10.0
SQLAlchemy==1.1.9
uritemplate==3.0.0
Werkzeug==0.12.1